{
  "navigation": [
    {
      "id": "apps",
      "link": "#apps",
      "title": "apps",
      "sub": [
        {
          "id": "todo (proof of concept: vanilla JS)",
          "title": "todo (proof of concept: vanilla JS)",
          "link": "/app-todo-vanilla"
        },
        {
          "id": "todo (proof of concept: MVC & vanilla JS)",
          "title": "todo (proof of concept: MVC & vanilla JS)",
          "link": "/app-todomvc-vanilla"
        },
        {
          "id": "snow (forked from codepen)",
          "title": "snow (forked from codepen)",
          "link": "/app-snow"
        }
      ]
    },
    {
      "id": "writings",
      "link": "#writings",
      "title": "writings",
      "sub": [
        {
          "id": "lorem",
          "title": "lorem",
          "link": "/lorem"
        },
        {
          "id": "ipsum",
          "title": "ipsum",
          "link": "/ipsum"
        }
      ]
    },
    {
      "id": "about me",
      "link": "#about_me",
      "title": "about me",
      "sub": [
        {
          "id": "curriculum vitae",
          "title": "curriculum vitae",
          "link": "curriculum-vitae"
        }
      ]
    }
  ],
  "footer": [
    "made by Norent Khy",
    "norent.dev@gmail.com"
  ]
}